{
  "globalDependencies": {
    "angular": "registry:dt/angular#1.5.0+20160909133806",
    "jquery": "registry:dt/jquery#1.10.0+20160908203239",
    "core-js": "registry:dt/core-js#0.0.0+20160725163759",
    "jasmine": "registry:dt/jasmine#2.2.0+20160621224255",
    "node": "registry:dt/node#6.0.0+20160909174046"
  }
}
